{
  "count": 1509,
  "next": "https://www.udemy.com/instructor-api/v1/taught-courses/reviews/?page=2",
  "previous": null,
  "results": [
    {
      "_class": "course_review",
      "id": "x01SM4dZRJ0kPqm4W9epZySGA==",
      "content": "",
      "rating": 5.0,
      "created": "2021-02-18T19:25:59Z",
      "user_modified": "2021-03-04T01:21:46Z",
      "user": {
        "_class": "user",
        "id": "x01_mchdgTtyyPylzakr2HGmw==",
        "title": "Almir Sena da Mata",
        "name": "Almir Sena"
      }
    },
    {
      "_class": "course_review",
      "id": "x01VZoxfei3D-3CVaxidUxF5Q==",
      "content": "",
      "rating": 4.5,
      "created": "2021-03-02T02:08:07Z",
      "user_modified": "2021-03-02T02:08:10Z",
      "user": {
        "_class": "user",
        "id": "x01gOEwn9rYIxHlxXFSfAQxnQ==",
        "title": "Luis Teixeira",
        "name": "Luis"
      }
    },
    {
      "_class": "course_review",
      "id": "x016QCsP2KqHhppDpW5EFwU3w==",
      "content": "",
      "rating": 5.0,
      "created": "2021-03-01T23:41:38Z",
      "user_modified": "2021-03-01T23:41:40Z",
      "user": {
        "_class": "user",
        "id": "x01r4ozqpRFpfjmVJ1AroKPNw==",
        "title": "P\u00e9ricles J\u00fanior",
        "name": "P\u00e9ricles"
      }
    },
    {
      "_class": "course_review",
      "id": "x01ADarO_b4ulYPnCaabQPRpQ==",
      "content": "",
      "rating": 5.0,
      "created": "2021-03-01T21:38:19Z",
      "user_modified": "2021-03-01T21:38:21Z",
      "user": {
        "_class": "user",
        "id": "x01MsATA0Q3K0wVBUXwgz7WWw==",
        "title": "Raphael Nunes",
        "name": "Raphael"
      }
    },
    {
      "_class": "course_review",
      "id": "x01BsleicL5yCAQtzXbBJyhzg==",
      "content": "",
      "rating": 5.0,
      "created": "2021-02-07T20:55:39Z",
      "user_modified": "2021-03-01T17:46:12Z",
      "user": {
        "_class": "user",
        "id": "x01zSMDp8lBMpW8KChbns4twg==",
        "title": "Laura",
        "name": "Laura"
      }
    },
    {
      "_class": "course_review",
      "id": "x01ZMfDyoyZC6soYCHHEQk6rA==",
      "content": "",
      "rating": 5.0,
      "created": "2021-03-01T14:41:00Z",
      "user_modified": "2021-03-01T14:41:02Z",
      "user": {
        "_class": "user",
        "id": "x01VJRRikDBKShvSN1rD3DLQw==",
        "title": "Rafael Artur",
        "name": "Rafael"
      }
    },
    {
      "_class": "course_review",
      "id": "x01us7y2AAvXwjqcQJ9Oj62jA==",
      "content": "",
      "rating": 5.0,
      "created": "2021-03-01T12:08:01Z",
      "user_modified": "2021-03-01T12:08:02Z",
      "user": {
        "_class": "user",
        "id": "x01SFEu3AkbWtmyzlnzoAUVtw==",
        "title": "Igor Dias szot",
        "name": "Igor Dias"
      }
    },
    {
      "_class": "course_review",
      "id": "x0167Vj9_wtvsX-nZiy6cIx_g==",
      "content": "",
      "rating": 5.0,
      "created": "2021-02-26T22:23:52Z",
      "user_modified": "2021-02-28T21:58:46Z",
      "user": {
        "_class": "user",
        "id": "x01Jm73ffseADzR19M8BcC82Q==",
        "title": "Rogerio Neves de Souza",
        "name": "Rogerio Neves"
      }
    },
    {
      "_class": "course_review",
      "id": "x01UR8LoA6A2CyiQcAgwiGKrg==",
      "content": "",
      "rating": 5.0,
      "created": "2021-02-28T17:09:21Z",
      "user_modified": "2021-02-28T17:09:22Z",
      "user": {
        "_class": "user",
        "id": "x01UKezdnnAYBBZ9lcosjjqzw==",
        "title": "Tasso Barbosa",
        "name": "Tasso"
      }
    },
    {
      "_class": "course_review",
      "id": "x019sYbJ7PdCrweCfojtlYdBQ==",
      "content": "",
      "rating": 4.0,
      "created": "2021-02-26T04:36:25Z",
      "user_modified": "2021-02-28T03:56:10Z",
      "user": {
        "_class": "user",
        "id": "x01hcaSbqlJlNOrSNm5SkGMxg==",
        "title": "Leonardo Alves Carrilho",
        "name": "Leonardo"
      }
    },
    {
      "_class": "course_review",
      "id": "x01q_wfeVinZL7zed0BA9R7Pw==",
      "content": "",
      "rating": 5.0,
      "created": "2020-12-04T00:51:43Z",
      "user_modified": "2021-02-27T00:01:31Z",
      "user": {
        "_class": "user",
        "id": "x01BPZbwsJiTX5zbCSsNp5NTQ==",
        "title": "Nathan Winder",
        "name": "Nathan"
      }
    },
    {
      "_class": "course_review",
      "id": "x01GpCu-burX7mF39fZrAXUVA==",
      "content": "",
      "rating": 4.5,
      "created": "2021-02-25T10:54:54Z",
      "user_modified": "2021-02-25T10:54:55Z",
      "user": {
        "_class": "user",
        "id": "x01R0tKnDb4PzUlsVigqnvNvQ==",
        "title": "Jose Roberto Carvalho Do Nascimento",
        "name": "Jose Roberto Carvalho Do"
      }
    }
  ]
}